[gd_scene load_steps=6 format=2]

[ext_resource path="res://scripts/olive.gd" type="Script" id=1]
[ext_resource path="res://gltf/Olive7.material" type="Material" id=2]

[sub_resource type="PhysicsMaterial" id=3]
bounce = 0.3

[sub_resource type="ArrayMesh" id=1]
resource_name = "olive7_Cube001"
surfaces/0 = {
"aabb": AABB( -1.4282, -1.37291, -2.5498, 3.16298, 3.07755, 4.80987 ),
"array_data": PoolByteArray( 246, 253, 146, 63, 47, 104, 8, 191, 247, 216, 2, 192, 89, 176, 170, 29, 0, 0, 0, 52, 246, 253, 146, 63, 47, 104, 8, 191, 247, 216, 2, 192, 89, 176, 57, 112, 0, 52, 0, 0, 246, 253, 146, 63, 47, 104, 8, 191, 247, 216, 2, 192, 89, 176, 57, 107, 0, 52, 0, 60, 16, 87, 113, 63, 54, 103, 132, 63, 185, 179, 237, 191, 76, 92, 231, 91, 0, 56, 0, 0, 16, 87, 113, 63, 54, 103, 132, 63, 185, 179, 237, 191, 76, 92, 221, 90, 0, 56, 0, 60, 16, 87, 113, 63, 54, 103, 132, 63, 185, 179, 237, 191, 76, 92, 72, 52, 0, 58, 0, 52, 180, 245, 27, 63, 172, 109, 58, 191, 157, 3, 230, 63, 29, 208, 178, 50, 0, 0, 0, 56, 180, 245, 27, 63, 172, 109, 58, 191, 157, 3, 230, 63, 29, 208, 34, 92, 0, 52, 0, 58, 16, 129, 1, 63, 209, 109, 29, 63, 37, 99, 13, 64, 9, 253, 219, 105, 0, 56, 0, 58, 16, 129, 1, 63, 209, 109, 29, 63, 37, 99, 13, 64, 9, 253, 100, 46, 0, 58, 0, 56, 116, 96, 48, 191, 135, 103, 104, 191, 73, 125, 215, 191, 184, 165, 180, 96, 0, 52, 0, 52, 240, 43, 87, 191, 219, 213, 38, 63, 90, 214, 255, 191, 158, 78, 55, 102, 0, 56, 0, 52, 108, 68, 42, 191, 235, 33, 74, 191, 7, 106, 181, 63, 204, 220, 188, 100, 0, 52, 0, 56, 19, 25, 142, 191, 246, 17, 42, 63, 1, 181, 208, 63, 192, 15, 32, 102, 0, 56, 0, 56, 42, 212, 106, 63, 15, 128, 132, 191, 167, 54, 105, 63, 40, 188, 176, 38, 0, 0, 192, 54, 42, 212, 106, 63, 15, 128, 132, 191, 167, 54, 105, 63, 40, 188, 61, 84, 0, 52, 160, 58, 206, 6, 144, 63, 201, 128, 130, 191, 24, 174, 50, 191, 62, 188, 188, 32, 0, 0, 64, 53, 206, 6, 144, 63, 201, 128, 130, 191, 24, 174, 50, 191, 62, 188, 64, 92, 0, 52, 96, 59, 116, 168, 152, 63, 225, 66, 163, 63, 234, 63, 19, 191, 60, 67, 190, 93, 0, 56, 96, 59, 116, 168, 152, 63, 225, 66, 163, 63, 234, 63, 19, 191, 60, 67, 61, 36, 0, 58, 64, 53, 222, 87, 114, 63, 95, 156, 93, 63, 68, 167, 177, 63, 54, 40, 203, 96, 0, 56, 160, 58, 222, 87, 114, 63, 95, 156, 93, 63, 68, 167, 177, 63, 54, 40, 61, 26, 0, 58, 192, 54, 20, 79, 84, 191, 175, 150, 141, 191, 60, 69, 51, 191, 199, 181, 181, 92, 0, 52, 64, 53, 34, 53, 88, 191, 47, 175, 131, 191, 235, 245, 21, 63, 199, 201, 184, 98, 0, 52, 192, 54, 253, 203, 153, 191, 115, 139, 123, 63, 129, 7, 64, 63, 185, 45, 41, 92, 0, 56, 192, 54, 73, 138, 142, 191, 36, 101, 134, 63, 231, 122, 111, 191, 179, 65, 52, 96, 0, 56, 64, 53, 63, 59, 117, 189, 103, 174, 77, 191, 91, 75, 232, 63, 246, 196, 136, 48, 0, 48, 0, 56, 63, 59, 117, 189, 103, 174, 77, 191, 91, 75, 232, 63, 246, 196, 246, 92, 0, 52, 0, 57, 151, 112, 164, 190, 195, 222, 68, 63, 209, 170, 7, 64, 242, 22, 228, 124, 0, 56, 0, 57, 151, 112, 164, 190, 195, 222, 68, 63, 209, 170, 7, 64, 242, 22, 96, 57, 0, 57, 0, 56, 64, 174, 74, 62, 140, 247, 94, 191, 24, 180, 3, 192, 198, 130, 169, 54, 0, 48, 0, 52, 64, 174, 74, 62, 140, 247, 94, 191, 24, 180, 3, 192, 198, 130, 184, 122, 0, 52, 0, 48, 11, 253, 222, 187, 87, 20, 120, 63, 2, 173, 9, 192, 188, 119, 1, 95, 0, 56, 0, 48, 11, 253, 222, 187, 87, 20, 120, 63, 2, 173, 9, 192, 188, 119, 94, 74, 0, 57, 0, 52, 178, 254, 23, 190, 50, 137, 189, 63, 178, 124, 163, 63, 251, 87, 94, 61, 0, 57, 192, 54, 15, 32, 131, 61, 123, 191, 214, 63, 249, 134, 57, 191, 233, 121, 103, 67, 0, 57, 64, 53, 32, 33, 189, 189, 166, 84, 157, 191, 1, 67, 76, 63, 0, 151, 133, 52, 0, 48, 192, 54, 197, 253, 209, 61, 169, 187, 175, 191, 70, 225, 45, 191, 245, 130, 135, 63, 0, 48, 64, 53, 135, 8, 153, 63, 33, 126, 123, 62, 209, 236, 5, 192, 114, 70, 240, 115, 0, 54, 0, 0, 135, 8, 153, 63, 33, 126, 123, 62, 209, 236, 5, 192, 114, 70, 243, 115, 0, 54, 0, 60, 133, 151, 28, 63, 165, 101, 173, 189, 223, 240, 5, 64, 35, 2, 250, 124, 0, 54, 224, 57, 105, 135, 115, 191, 155, 19, 64, 189, 83, 132, 198, 63, 197, 231, 228, 106, 0, 54, 0, 56, 162, 44, 118, 191, 223, 237, 124, 190, 185, 176, 242, 191, 147, 187, 226, 121, 0, 54, 0, 52, 13, 49, 169, 191, 93, 161, 191, 189, 204, 164, 19, 63, 168, 232, 231, 111, 0, 54, 192, 54, 62, 169, 181, 191, 71, 127, 50, 190, 71, 127, 84, 191, 150, 229, 222, 118, 0, 54, 64, 53, 6, 13, 222, 63, 5, 207, 13, 62, 69, 171, 33, 191, 122, 250, 4, 118, 0, 54, 96, 59, 92, 85, 176, 63, 187, 59, 65, 190, 112, 14, 147, 63, 80, 247, 0, 114, 0, 54, 160, 58, 233, 21, 119, 61, 123, 24, 64, 189, 241, 47, 35, 192, 140, 141, 233, 119, 0, 54, 0, 48, 64, 123, 79, 190, 251, 123, 95, 189, 235, 164, 16, 64, 245, 4, 230, 116, 0, 54, 0, 57, 54, 143, 157, 63, 240, 156, 63, 191, 74, 81, 200, 191, 77, 184, 189, 28, 0, 0, 192, 52, 54, 143, 157, 63, 240, 156, 63, 191, 74, 81, 200, 191, 77, 184, 60, 97, 0, 52, 160, 59, 110, 90, 138, 63, 139, 66, 52, 63, 174, 112, 255, 191, 94, 82, 231, 101, 0, 55, 0, 0, 110, 90, 138, 63, 139, 66, 52, 63, 174, 112, 255, 191, 94, 82, 224, 101, 0, 55, 0, 60, 3, 24, 51, 63, 39, 12, 53, 63, 173, 254, 251, 63, 47, 30, 205, 96, 0, 56, 96, 58, 3, 24, 51, 63, 39, 12, 53, 63, 173, 254, 251, 63, 47, 30, 73, 26, 0, 58, 64, 55, 130, 234, 32, 63, 255, 228, 228, 190, 89, 62, 246, 63, 38, 228, 17, 104, 0, 53, 224, 57, 203, 12, 162, 62, 85, 90, 62, 191, 99, 65, 236, 63, 13, 199, 154, 55, 0, 44, 0, 56, 203, 12, 162, 62, 85, 90, 62, 191, 99, 65, 236, 63, 13, 199, 250, 92, 0, 52, 128, 57, 174, 2, 79, 191, 99, 170, 63, 63, 67, 5, 239, 63, 212, 24, 218, 126, 0, 56, 128, 56, 174, 2, 79, 191, 99, 170, 63, 63, 67, 5, 239, 63, 212, 24, 67, 70, 128, 56, 0, 56, 16, 58, 70, 191, 135, 221, 235, 190, 86, 130, 189, 63, 199, 226, 227, 103, 0, 53, 0, 56, 5, 248, 66, 191, 113, 41, 108, 191, 14, 180, 139, 63, 202, 210, 182, 100, 0, 52, 64, 55, 240, 15, 124, 191, 123, 166, 91, 63, 125, 174, 207, 191, 170, 73, 59, 99, 0, 56, 192, 52, 43, 50, 91, 191, 243, 192, 36, 191, 247, 9, 229, 191, 166, 176, 200, 110, 0, 53, 0, 52, 56, 139, 168, 190, 29, 8, 112, 191, 211, 29, 238, 191, 191, 150, 168, 64, 0, 50, 0, 52, 56, 139, 168, 190, 29, 8, 112, 191, 211, 29, 238, 191, 191, 150, 179, 117, 0, 52, 0, 50, 155, 188, 5, 63, 2, 25, 133, 63, 27, 4, 2, 192, 68, 111, 249, 92, 0, 56, 0, 44, 155, 188, 5, 63, 2, 25, 133, 63, 27, 4, 2, 192, 68, 111, 96, 64, 128, 57, 0, 52, 58, 198, 70, 63, 120, 65, 101, 191, 104, 231, 182, 63, 33, 198, 177, 42, 0, 0, 64, 55, 58, 198, 70, 63, 120, 65, 101, 191, 104, 231, 182, 63, 33, 198, 51, 86, 0, 52, 96, 58, 223, 56, 121, 63, 69, 54, 137, 191, 193, 211, 44, 62, 50, 187, 180, 34, 0, 0, 0, 54, 223, 56, 121, 63, 69, 54, 137, 191, 193, 211, 44, 62, 50, 187, 65, 87, 0, 52, 0, 59, 250, 67, 143, 63, 226, 81, 153, 63, 189, 154, 173, 191, 68, 82, 196, 89, 0, 56, 160, 59, 250, 67, 143, 63, 226, 81, 153, 63, 189, 154, 173, 191, 68, 82, 66, 41, 0, 58, 192, 52, 178, 18, 148, 63, 201, 254, 143, 63, 180, 188, 0, 63, 56, 51, 195, 97, 0, 56, 0, 59, 178, 18, 148, 63, 201, 254, 143, 63, 180, 188, 0, 63, 56, 51, 58, 30, 0, 58, 0, 54, 177, 48, 70, 191, 137, 83, 133, 191, 145, 130, 165, 191, 193, 171, 180, 89, 0, 52, 192, 52, 222, 71, 89, 191, 26, 143, 141, 191, 61, 204, 118, 189, 199, 191, 184, 95, 0, 52, 0, 54, 105, 164, 152, 191, 53, 117, 78, 63, 244, 236, 169, 63, 187, 32, 38, 92, 0, 56, 64, 55, 249, 161, 151, 191, 150, 164, 137, 63, 28, 220, 139, 189, 183, 55, 45, 94, 0, 56, 0, 54, 214, 166, 67, 191, 49, 121, 173, 63, 127, 51, 132, 63, 216, 67, 64, 78, 128, 56, 192, 54, 205, 57, 16, 191, 208, 180, 189, 63, 109, 135, 82, 191, 204, 91, 73, 82, 128, 56, 64, 53, 157, 183, 214, 62, 142, 47, 152, 191, 169, 176, 93, 63, 18, 168, 152, 47, 0, 44, 192, 54, 218, 226, 33, 63, 113, 152, 172, 191, 39, 236, 55, 191, 36, 160, 163, 47, 0, 44, 64, 53, 159, 116, 141, 191, 183, 244, 29, 191, 3, 167, 13, 63, 183, 218, 211, 105, 0, 53, 192, 54, 230, 202, 152, 191, 80, 166, 51, 191, 131, 118, 60, 191, 177, 206, 202, 104, 0, 53, 64, 53, 194, 124, 196, 63, 71, 245, 242, 190, 61, 84, 45, 191, 85, 212, 40, 103, 0, 53, 96, 59, 27, 153, 163, 63, 249, 56, 49, 191, 119, 237, 131, 63, 62, 216, 37, 98, 0, 53, 160, 58, 33, 60, 222, 190, 75, 126, 86, 191, 35, 197, 208, 63, 222, 210, 139, 91, 0, 50, 0, 56, 33, 60, 222, 190, 75, 126, 86, 191, 35, 197, 208, 63, 222, 210, 235, 93, 0, 52, 128, 56, 233, 189, 42, 62, 99, 113, 54, 63, 229, 15, 8, 64, 4, 2, 232, 115, 0, 56, 128, 57, 233, 189, 42, 62, 99, 113, 54, 63, 229, 15, 8, 64, 4, 2, 98, 47, 128, 57, 0, 56, 32, 11, 65, 63, 59, 156, 52, 191, 39, 168, 8, 192, 76, 153, 169, 43, 0, 44, 0, 52, 32, 11, 65, 63, 59, 156, 52, 191, 39, 168, 8, 192, 76, 153, 63, 125, 0, 52, 0, 44, 97, 192, 254, 190, 25, 55, 81, 63, 229, 61, 8, 192, 172, 97, 14, 97, 0, 56, 0, 50, 97, 192, 254, 190, 25, 55, 81, 63, 229, 61, 8, 192, 172, 97, 87, 88, 128, 56, 0, 52, 59, 86, 253, 62, 125, 248, 162, 63, 126, 177, 177, 63, 31, 64, 76, 42, 128, 57, 192, 54, 219, 89, 43, 63, 233, 176, 204, 63, 116, 220, 40, 191, 40, 95, 85, 48, 128, 57, 64, 53, 32, 114, 4, 191, 234, 18, 155, 191, 138, 171, 48, 63, 227, 175, 154, 87, 0, 50, 192, 54, 148, 89, 200, 190, 126, 143, 166, 191, 157, 248, 45, 191, 221, 155, 157, 77, 0, 50, 64, 53, 225, 38, 221, 188, 69, 150, 174, 191, 55, 173, 108, 61, 255, 142, 130, 70, 0, 48, 0, 54, 94, 172, 146, 189, 73, 149, 141, 191, 33, 120, 178, 63, 253, 172, 136, 49, 0, 48, 64, 55, 81, 205, 70, 188, 91, 49, 218, 63, 60, 156, 184, 62, 252, 110, 104, 64, 0, 57, 0, 54, 152, 164, 142, 190, 152, 191, 144, 63, 87, 222, 237, 63, 244, 61, 87, 59, 0, 57, 64, 55, 193, 163, 59, 61, 25, 220, 176, 63, 234, 31, 195, 191, 211, 120, 96, 70, 0, 57, 192, 52, 31, 53, 75, 62, 244, 37, 157, 191, 7, 193, 187, 191, 35, 130, 159, 59, 0, 48, 192, 52, 2, 174, 9, 62, 205, 183, 242, 190, 213, 222, 25, 192, 172, 135, 204, 120, 0, 53, 0, 48, 236, 61, 225, 189, 223, 204, 221, 190, 18, 95, 8, 64, 241, 219, 242, 101, 0, 53, 0, 57, 169, 248, 155, 63, 195, 207, 71, 190, 111, 57, 7, 192, 112, 187, 26, 124, 0, 53, 0, 0, 169, 248, 155, 63, 195, 207, 71, 190, 111, 57, 7, 192, 112, 187, 25, 118, 0, 53, 0, 60, 225, 29, 16, 63, 169, 214, 148, 62, 25, 248, 5, 64, 10, 252, 230, 110, 0, 55, 224, 57, 7, 31, 139, 191, 171, 189, 183, 62, 193, 56, 204, 63, 189, 244, 244, 115, 0, 55, 0, 56, 138, 124, 110, 191, 89, 237, 118, 62, 235, 173, 253, 191, 136, 64, 19, 119, 0, 55, 0, 52, 42, 194, 176, 191, 177, 50, 235, 62, 248, 156, 28, 63, 151, 9, 11, 113, 0, 55, 192, 54, 125, 111, 180, 191, 125, 29, 212, 62, 211, 47, 116, 191, 149, 34, 30, 116, 0, 55, 64, 53, 17, 213, 205, 63, 155, 131, 61, 63, 241, 80, 15, 191, 86, 39, 218, 105, 0, 55, 96, 59, 179, 226, 156, 63, 179, 70, 180, 62, 85, 8, 163, 63, 71, 18, 226, 102, 0, 55, 160, 58, 214, 66, 163, 58, 127, 186, 233, 62, 178, 245, 30, 192, 158, 116, 250, 108, 0, 55, 0, 48, 123, 9, 142, 190, 147, 187, 185, 62, 10, 9, 13, 64, 0, 5, 237, 119, 0, 55, 0, 57, 84, 4, 99, 62, 11, 119, 69, 189, 67, 162, 8, 64, 16, 25, 224, 124, 0, 54, 128, 57, 99, 128, 251, 190, 203, 17, 49, 190, 243, 38, 19, 192, 146, 170, 229, 121, 0, 54, 0, 50, 116, 211, 206, 63, 213, 38, 249, 188, 34, 101, 190, 62, 99, 248, 5, 114, 0, 54, 0, 59, 236, 12, 206, 63, 175, 182, 147, 62, 204, 7, 190, 191, 118, 40, 251, 117, 0, 54, 160, 59, 32, 125, 177, 191, 173, 58, 238, 189, 211, 134, 241, 189, 158, 235, 228, 115, 0, 54, 0, 54, 209, 188, 151, 191, 181, 224, 157, 189, 145, 224, 142, 63, 184, 230, 229, 107, 0, 54, 64, 55, 213, 139, 37, 63, 115, 45, 226, 61, 247, 188, 29, 192, 120, 95, 237, 116, 0, 54, 0, 44, 9, 169, 164, 191, 127, 11, 113, 190, 198, 235, 181, 191, 147, 207, 223, 120, 0, 54, 192, 52, 124, 26, 30, 191, 91, 249, 48, 189, 190, 205, 249, 63, 206, 236, 230, 109, 0, 54, 128, 56, 191, 150, 128, 63, 155, 142, 53, 190, 27, 249, 211, 63, 64, 246, 250, 110, 0, 54, 96, 58, 100, 231, 102, 63, 75, 192, 150, 62, 165, 233, 234, 63, 65, 8, 228, 100, 0, 55, 96, 58, 199, 127, 61, 191, 207, 84, 189, 62, 141, 221, 247, 63, 204, 251, 227, 116, 0, 55, 128, 56, 8, 106, 158, 191, 43, 88, 154, 62, 37, 43, 199, 191, 142, 49, 36, 116, 0, 55, 192, 52, 57, 116, 13, 63, 136, 206, 26, 63, 14, 204, 22, 192, 93, 105, 244, 103, 0, 55, 0, 44, 243, 203, 166, 190, 105, 170, 153, 191, 17, 158, 173, 191, 210, 149, 164, 71, 0, 50, 192, 52, 186, 233, 30, 63, 244, 194, 175, 63, 248, 28, 183, 191, 51, 107, 92, 55, 128, 57, 192, 52, 48, 78, 149, 62, 173, 246, 123, 63, 195, 67, 0, 64, 18, 54, 83, 45, 128, 57, 64, 55, 33, 145, 32, 63, 121, 88, 199, 63, 242, 119, 223, 62, 34, 76, 78, 44, 128, 57, 0, 54, 233, 232, 243, 190, 216, 16, 140, 191, 65, 80, 159, 63, 227, 189, 149, 89, 0, 50, 64, 55, 121, 226, 241, 190, 227, 91, 169, 191, 167, 66, 18, 188, 227, 163, 156, 83, 0, 50, 0, 54, 158, 3, 165, 191, 9, 105, 207, 62, 149, 133, 153, 63, 162, 252, 2, 114, 0, 55, 64, 55, 89, 207, 182, 191, 221, 249, 241, 62, 205, 46, 28, 190, 149, 18, 18, 115, 0, 55, 0, 54, 230, 119, 187, 63, 173, 242, 76, 63, 60, 133, 178, 191, 90, 61, 217, 102, 0, 55, 160, 59, 178, 98, 194, 63, 56, 165, 15, 63, 223, 164, 0, 63, 76, 28, 223, 105, 0, 55, 0, 59, 41, 231, 237, 62, 204, 193, 166, 191, 189, 143, 234, 61, 23, 163, 154, 46, 0, 44, 0, 54, 129, 160, 197, 62, 67, 169, 129, 191, 221, 41, 182, 63, 14, 180, 151, 51, 0, 44, 64, 55, 146, 141, 42, 191, 47, 175, 192, 63, 11, 102, 64, 62, 213, 81, 67, 81, 128, 56, 0, 54, 230, 99, 84, 191, 224, 35, 135, 63, 227, 245, 203, 63, 217, 51, 65, 74, 128, 56, 64, 55, 202, 192, 5, 191, 185, 44, 156, 63, 119, 155, 205, 191, 193, 97, 79, 83, 128, 56, 192, 52, 161, 60, 65, 63, 48, 110, 140, 191, 245, 15, 201, 191, 57, 157, 174, 45, 0, 44, 192, 52, 143, 9, 2, 191, 127, 32, 162, 62, 179, 150, 20, 192, 142, 86, 0, 117, 0, 55, 0, 50, 12, 58, 90, 62, 141, 6, 159, 62, 133, 51, 188, 63, 255, 2, 244, 122, 0, 55, 128, 57, 255, 67, 142, 62, 201, 134, 202, 190, 185, 56, 9, 64, 17, 225, 250, 105, 0, 53, 128, 57, 65, 93, 219, 190, 233, 176, 26, 191, 9, 20, 10, 192, 169, 159, 200, 118, 0, 53, 0, 50, 20, 175, 179, 63, 160, 14, 27, 191, 156, 247, 129, 62, 74, 212, 41, 99, 0, 53, 0, 59, 90, 0, 194, 63, 215, 165, 126, 190, 113, 69, 197, 191, 102, 206, 30, 109, 0, 53, 160, 59, 93, 192, 148, 191, 91, 212, 42, 191, 12, 162, 183, 189, 179, 213, 207, 105, 0, 53, 0, 54, 169, 119, 121, 191, 37, 70, 10, 191, 53, 151, 135, 63, 190, 223, 216, 104, 0, 53, 64, 55, 43, 177, 56, 63, 251, 13, 168, 190, 158, 81, 25, 192, 101, 157, 213, 121, 0, 53, 0, 44, 160, 161, 142, 191, 54, 174, 54, 191, 162, 24, 171, 191, 172, 191, 201, 104, 0, 53, 192, 52, 249, 218, 251, 190, 217, 67, 229, 190, 1, 201, 237, 63, 213, 224, 237, 101, 0, 53, 128, 56, 77, 52, 124, 63, 108, 235, 26, 191, 67, 214, 195, 63, 51, 224, 27, 101, 0, 53, 96, 58 ),
"array_index_data": PoolByteArray( 46, 0, 129, 0, 116, 0, 46, 0, 128, 0, 129, 0, 116, 0, 53, 0, 20, 0, 116, 0, 129, 0, 53, 0, 129, 0, 8, 0, 53, 0, 129, 0, 110, 0, 8, 0, 128, 0, 110, 0, 129, 0, 128, 0, 40, 0, 110, 0, 48, 0, 130, 0, 118, 0, 48, 0, 127, 0, 130, 0, 118, 0, 58, 0, 28, 0, 118, 0, 130, 0, 58, 0, 130, 0, 13, 0, 58, 0, 130, 0, 111, 0, 13, 0, 127, 0, 111, 0, 130, 0, 127, 0, 41, 0, 111, 0, 44, 0, 131, 0, 114, 0, 44, 0, 126, 0, 131, 0, 114, 0, 62, 0, 25, 0, 114, 0, 131, 0, 62, 0, 131, 0, 11, 0, 62, 0, 131, 0, 112, 0, 11, 0, 126, 0, 112, 0, 131, 0, 126, 0, 42, 0, 112, 0, 47, 0, 132, 0, 117, 0, 47, 0, 125, 0, 132, 0, 117, 0, 66, 0, 32, 0, 117, 0, 132, 0, 66, 0, 132, 0, 3, 0, 66, 0, 132, 0, 51, 0, 3, 0, 125, 0, 51, 0, 132, 0, 125, 0, 38, 0, 51, 0, 37, 0, 133, 0, 99, 0, 37, 0, 105, 0, 133, 0, 99, 0, 76, 0, 22, 0, 99, 0, 133, 0, 76, 0, 133, 0, 10, 0, 76, 0, 133, 0, 64, 0, 10, 0, 105, 0, 64, 0, 133, 0, 105, 0, 30, 0, 64, 0, 35, 0, 134, 0, 97, 0, 35, 0, 104, 0, 134, 0, 97, 0, 73, 0, 19, 0, 97, 0, 134, 0, 73, 0, 134, 0, 5, 0, 73, 0, 134, 0, 67, 0, 5, 0, 104, 0, 67, 0, 134, 0, 104, 0, 33, 0, 67, 0, 29, 0, 135, 0, 91, 0, 29, 0, 103, 0, 135, 0, 91, 0, 54, 0, 9, 0, 91, 0, 135, 0, 54, 0, 135, 0, 21, 0, 54, 0, 135, 0, 96, 0, 21, 0, 103, 0, 96, 0, 135, 0, 103, 0, 34, 0, 96, 0, 34, 0, 136, 0, 96, 0, 34, 0, 102, 0, 136, 0, 96, 0, 75, 0, 21, 0, 96, 0, 136, 0, 75, 0, 136, 0, 19, 0, 75, 0, 136, 0, 97, 0, 19, 0, 102, 0, 97, 0, 136, 0, 102, 0, 35, 0, 97, 0, 26, 0, 137, 0, 88, 0, 26, 0, 101, 0, 137, 0, 88, 0, 61, 0, 12, 0, 88, 0, 137, 0, 61, 0, 137, 0, 23, 0, 61, 0, 137, 0, 98, 0, 23, 0, 101, 0, 98, 0, 137, 0, 101, 0, 36, 0, 98, 0, 36, 0, 138, 0, 98, 0, 36, 0, 100, 0, 138, 0, 98, 0, 77, 0, 23, 0, 98, 0, 138, 0, 77, 0, 138, 0, 22, 0, 77, 0, 138, 0, 99, 0, 22, 0, 100, 0, 99, 0, 138, 0, 100, 0, 37, 0, 99, 0, 41, 0, 139, 0, 111, 0, 41, 0, 124, 0, 139, 0, 111, 0, 78, 0, 13, 0, 111, 0, 139, 0, 78, 0, 139, 0, 24, 0, 78, 0, 139, 0, 113, 0, 24, 0, 124, 0, 113, 0, 139, 0, 124, 0, 43, 0, 113, 0, 43, 0, 140, 0, 113, 0, 43, 0, 123, 0, 140, 0, 113, 0, 79, 0, 24, 0, 113, 0, 140, 0, 79, 0, 140, 0, 25, 0, 79, 0, 140, 0, 114, 0, 25, 0, 123, 0, 114, 0, 140, 0, 123, 0, 44, 0, 114, 0, 39, 0, 141, 0, 52, 0, 39, 0, 122, 0, 141, 0, 52, 0, 72, 0, 4, 0, 52, 0, 141, 0, 72, 0, 141, 0, 18, 0, 72, 0, 141, 0, 115, 0, 18, 0, 122, 0, 115, 0, 141, 0, 122, 0, 45, 0, 115, 0, 45, 0, 142, 0, 115, 0, 45, 0, 121, 0, 142, 0, 115, 0, 74, 0, 18, 0, 115, 0, 142, 0, 74, 0, 142, 0, 20, 0, 74, 0, 142, 0, 116, 0, 20, 0, 121, 0, 116, 0, 142, 0, 121, 0, 46, 0, 116, 0, 14, 0, 143, 0, 82, 0, 14, 0, 70, 0, 143, 0, 82, 0, 100, 0, 36, 0, 82, 0, 143, 0, 100, 0, 143, 0, 37, 0, 100, 0, 143, 0, 83, 0, 37, 0, 70, 0, 83, 0, 143, 0, 70, 0, 16, 0, 83, 0, 6, 0, 144, 0, 56, 0, 6, 0, 68, 0, 144, 0, 56, 0, 101, 0, 26, 0, 56, 0, 144, 0, 101, 0, 144, 0, 36, 0, 101, 0, 144, 0, 82, 0, 36, 0, 68, 0, 82, 0, 144, 0, 68, 0, 14, 0, 82, 0, 24, 0, 145, 0, 80, 0, 24, 0, 79, 0, 145, 0, 80, 0, 102, 0, 34, 0, 80, 0, 145, 0, 102, 0, 145, 0, 35, 0, 102, 0, 145, 0, 81, 0, 35, 0, 79, 0, 81, 0, 145, 0, 79, 0, 25, 0, 81, 0, 13, 0, 146, 0, 59, 0, 13, 0, 78, 0, 146, 0, 59, 0, 103, 0, 29, 0, 59, 0, 146, 0, 103, 0, 146, 0, 34, 0, 103, 0, 146, 0, 80, 0, 34, 0, 78, 0, 80, 0, 146, 0, 78, 0, 24, 0, 80, 0, 25, 0, 147, 0, 81, 0, 25, 0, 62, 0, 147, 0, 81, 0, 104, 0, 35, 0, 81, 0, 147, 0, 104, 0, 147, 0, 33, 0, 104, 0, 147, 0, 95, 0, 33, 0, 62, 0, 95, 0, 147, 0, 62, 0, 11, 0, 95, 0, 16, 0, 148, 0, 83, 0, 16, 0, 49, 0, 148, 0, 83, 0, 105, 0, 37, 0, 83, 0, 148, 0, 105, 0, 148, 0, 30, 0, 105, 0, 148, 0, 92, 0, 30, 0, 49, 0, 92, 0, 148, 0, 49, 0, 0, 0, 92, 0, 42, 0, 149, 0, 112, 0, 42, 0, 120, 0, 149, 0, 112, 0, 94, 0, 11, 0, 112, 0, 149, 0, 94, 0, 149, 0, 32, 0, 94, 0, 149, 0, 117, 0, 32, 0, 120, 0, 117, 0, 149, 0, 120, 0, 47, 0, 117, 0, 40, 0, 150, 0, 110, 0, 40, 0, 119, 0, 150, 0, 110, 0, 90, 0, 8, 0, 110, 0, 150, 0, 90, 0, 150, 0, 28, 0, 90, 0, 150, 0, 118, 0, 28, 0, 119, 0, 118, 0, 150, 0, 119, 0, 48, 0, 118, 0, 7, 0, 151, 0, 55, 0, 7, 0, 57, 0, 151, 0, 55, 0, 119, 0, 40, 0, 55, 0, 151, 0, 119, 0, 151, 0, 48, 0, 119, 0, 151, 0, 107, 0, 48, 0, 57, 0, 107, 0, 151, 0, 57, 0, 27, 0, 107, 0, 10, 0, 152, 0, 63, 0, 10, 0, 65, 0, 152, 0, 63, 0, 120, 0, 42, 0, 63, 0, 152, 0, 120, 0, 152, 0, 47, 0, 120, 0, 152, 0, 106, 0, 47, 0, 65, 0, 106, 0, 152, 0, 65, 0, 31, 0, 106, 0, 17, 0, 153, 0, 86, 0, 17, 0, 71, 0, 153, 0, 86, 0, 121, 0, 45, 0, 86, 0, 153, 0, 121, 0, 153, 0, 46, 0, 121, 0, 153, 0, 87, 0, 46, 0, 71, 0, 87, 0, 153, 0, 71, 0, 15, 0, 87, 0, 2, 0, 154, 0, 109, 0, 2, 0, 50, 0, 154, 0, 109, 0, 122, 0, 39, 0, 109, 0, 154, 0, 122, 0, 154, 0, 45, 0, 122, 0, 154, 0, 86, 0, 45, 0, 50, 0, 86, 0, 154, 0, 50, 0, 17, 0, 86, 0, 23, 0, 155, 0, 84, 0, 23, 0, 77, 0, 155, 0, 84, 0, 123, 0, 43, 0, 84, 0, 155, 0, 123, 0, 155, 0, 44, 0, 123, 0, 155, 0, 85, 0, 44, 0, 77, 0, 85, 0, 155, 0, 77, 0, 22, 0, 85, 0, 12, 0, 156, 0, 60, 0, 12, 0, 61, 0, 156, 0, 60, 0, 124, 0, 41, 0, 60, 0, 156, 0, 124, 0, 156, 0, 43, 0, 124, 0, 156, 0, 84, 0, 43, 0, 61, 0, 84, 0, 156, 0, 61, 0, 23, 0, 84, 0, 31, 0, 157, 0, 106, 0, 31, 0, 93, 0, 157, 0, 106, 0, 125, 0, 47, 0, 106, 0, 157, 0, 125, 0, 157, 0, 38, 0, 125, 0, 157, 0, 108, 0, 38, 0, 93, 0, 108, 0, 157, 0, 93, 0, 1, 0, 108, 0, 22, 0, 158, 0, 85, 0, 22, 0, 76, 0, 158, 0, 85, 0, 126, 0, 44, 0, 85, 0, 158, 0, 126, 0, 158, 0, 42, 0, 126, 0, 158, 0, 63, 0, 42, 0, 76, 0, 63, 0, 158, 0, 76, 0, 10, 0, 63, 0, 27, 0, 159, 0, 107, 0, 27, 0, 89, 0, 159, 0, 107, 0, 127, 0, 48, 0, 107, 0, 159, 0, 127, 0, 159, 0, 41, 0, 127, 0, 159, 0, 60, 0, 41, 0, 89, 0, 60, 0, 159, 0, 89, 0, 12, 0, 60, 0, 15, 0, 160, 0, 87, 0, 15, 0, 69, 0, 160, 0, 87, 0, 128, 0, 46, 0, 87, 0, 160, 0, 128, 0, 160, 0, 40, 0, 128, 0, 160, 0, 55, 0, 40, 0, 69, 0, 55, 0, 160, 0, 69, 0, 7, 0, 55, 0 ),
"blend_shape_data": [  ],
"format": 2194711,
"index_count": 768,
"material": ExtResource( 2 ),
"primitive": 4,
"skeleton_aabb": [  ],
"vertex_count": 161
}

[sub_resource type="ConvexPolygonShape" id=4]
points = PoolVector3Array( 1.73477, 0.138445, -0.631693, 1.53476, -0.474594, -0.677362, 1.51557, -0.24896, -1.54131, 1.60969, 0.288466, -1.48481, 1.60783, 0.740036, -0.560128, 1.51836, 0.561095, 0.502506, 1.61557, -0.0305551, 0.371619, 1.12515, -1.01985, -0.698078, 1.23073, -0.748729, -1.56532, 1.40349, -0.605938, 0.253443, 1.14837, -0.533036, -2.04461, 1.21834, -0.195338, -2.11288, 1.46448, 0.800286, -1.39489, 1.19543, 0.245388, -2.09264, 1.08088, 0.703887, -1.99565, 1.19234, 1.27535, -0.575194, 1.15673, 1.12473, 0.502506, 0.946506, 0.865656, 1.38764, 1.22546, 0.352029, 1.27323, 1.37748, -0.18871, 1.14847, 1.2781, -0.692396, 1.03029, 0.632251, -1.34851, -0.718794, 0.754547, -1.09727, -1.57097, 0.973442, -1.07227, 0.168696, 0.753928, -0.705651, -2.13548, 0.721419, -0.328489, -2.39584, 0.646494, 0.110429, -2.46505, 1.11896, 1.19763, -1.35675, 0.942481, 1.03436, -1.85723, 0.552372, 0.604475, -2.3563, 0.669095, 1.59889, -0.659942, 0.626988, 1.55732, 0.436121, 0.494785, 1.27294, 1.38811, 0.699437, 0.7072, 1.96863, 0.901922, 0.29419, 1.83492, 1.0044, -0.177564, 1.65601, 0.984897, -0.605336, 1.52983, 0.77622, -0.895738, 1.4286, 0.917093, -1.03522, 0.910704, 0.464443, -1.30303, 0.114082, -0.0272177, -1.36418, 0.0575836, 0.102509, -1.37291, -0.679245, 0.198178, -1.22801, -1.46692, 0.197869, -0.871036, -2.05827, 0.134399, -0.474293, -2.40432, 0.0600923, -0.0471237, -2.5498, 0.000956774, 0.456261, -2.48389, 0.620486, 1.37296, -1.43067, 0.52234, 1.03978, -2.0319, -0.00709307, 0.968984, -2.15149, 0.0638076, 1.67752, -0.724914, -0.0123564, 1.70463, 0.360319, -0.148585, 1.4805, 1.277, 0.291371, 0.984047, 2.00394, 0.505621, 0.614717, 2.20875, 0.611508, -0.0847796, 2.09245, 0.628536, -0.447181, 1.92343, 0.609031, -0.728245, 1.79678, 0.385802, -1.01322, 1.42295, 0.41924, -1.18915, 0.865976, -0.472437, -1.32321, -0.00927234, -0.0925454, -1.22922, 0.797708, -0.51764, -1.21175, 0.689891, -0.391319, -1.30152, -0.679716, -0.325991, -1.2006, -1.35675, -0.329397, -0.937913, -1.86052, -0.428472, -0.604432, -2.15761, -0.491323, -0.173045, -2.29933, -0.508042, 0.316482, -2.32193, -0.497825, 0.817156, -2.12889, 0.0455406, 1.38169, -1.52483, -0.522594, 1.21992, -1.60675, -0.563462, 1.48201, -0.822844, -0.666253, 1.50521, 0.187529, -0.764399, 1.35518, 1.03265, -0.829727, 1.05574, 1.59339, -0.278621, 1.13075, 1.85799, -0.321347, 0.768956, 2.11976, -0.277692, 0.362573, 2.20357, -0.202767, -0.054655, 2.26007, 0.277748, -0.395667, 2.14377, 0.316449, -0.743608, 1.84528, -0.0718015, -1.10631, 1.39423, -0.848923, -1.10601, -0.0605915, -0.829417, -1.10631, -0.700432, -0.476462, -1.09456, 1.24451, -0.844588, -1.02889, 0.58537, -0.774307, -1.04184, -1.29319, -0.689164, -0.908089, -1.68397, -0.856353, -0.643594, -1.78943, -0.961621, -0.247152, -1.89631, -0.931588, 0.240869, -1.982, -0.840563, 0.65147, -1.99895, -0.984841, 0.857824, -1.62276, -1.11364, 1.04972, -0.93584, -1.18485, 1.07532, -0.0685954, -1.19259, 0.806311, 1.32738, -1.20157, 0.982541, 0.749685, -1.11023, 0.664122, 1.63011, -0.808673, 0.748471, 1.86693, -0.740249, 0.369502, 1.93614, -0.617644, -0.0432075, 1.95121, -0.491942, -0.448084, 1.85752, -0.110193, -0.433323, 2.13059, -0.0600364, -0.803556, 1.81467, -0.434355, -0.837899, 1.63058, -1.16225, -0.667393, -0.0897822, -1.19383, -0.702036, -0.736214, -1.11457, -0.713785, -1.33698, -0.665324, -0.789699, 1.41683, -0.761613, -0.922549, 1.09103, -1.10528, -0.617084, 0.552883, -1.28671, -0.235403, -1.42172, -1.23779, 0.30142, -1.55638, -1.40994, 0.414086, -0.954202, -1.4282, 0.472528, -0.152872, -1.38114, 0.459274, 0.611735, -1.28919, 0.405049, 1.19931, -1.08701, 0.358657, 1.59527, -0.951403, -0.0471237, 1.55054, -1.38672, -0.116411, -0.118031, -1.41953, -0.174551, -0.830377, -1.32201, -0.0938171, 0.576424, -1.18547, -0.0772485, 1.11598, -0.974624, -0.540266, 1.05901 )

[node name="Olive7" type="RigidBody"]
transform = Transform( 0.954844, -0.0672541, 0.289396, 0, 0.974043, 0.226362, -0.297108, -0.216141, 0.930059, 0, 6.73272, 0 )
physics_material_override = SubResource( 3 )
gravity_scale = 10.0
angular_damp = 10.0
script = ExtResource( 1 )

[node name="AudioStreamPlayer3D" type="AudioStreamPlayer3D" parent="."]
unit_db = 12.0
unit_size = 3.0

[node name="olive7" type="MeshInstance" parent="."]
transform = Transform( 1, -7.45058e-09, 2.98023e-08, 0, 1, 0, -2.98023e-08, 0, 1, 0, 0, 0 )
mesh = SubResource( 1 )
skeleton = NodePath("")
material/0 = null

[node name="CollisionShape" type="CollisionShape" parent="."]
transform = Transform( 1, -7.45058e-09, 2.98023e-08, 0, 1, 0, -2.98023e-08, 0, 1, 0, 0, 0 )
shape = SubResource( 4 )

[connection signal="input_event" from="." to="." method="_on_Olive_input_event"]
